{
	"info": {
		"_postman_id": "e42a3dd8-0903-4e39-b72b-9d4a561e0cb2",
		"name": "Collection Demo API REST - Cuenta_Cliente",
		"schema": "https://schema.getpostman.com/json/collection/v2.1.0/collection.json"
	},
	"item": [
		{
			"name": "cuenta",
			"item": [
				{
					"name": "Obtener detalle CUENTA",
					"request": {
						"method": "GET",
						"header": [],
						"url": {
							"raw": "http://localhost:9000/api/v1/cuentas/1234567890005570",
							"protocol": "http",
							"host": [
								"localhost"
							],
							"port": "9000",
							"path": [
								"api",
								"v1",
								"cuentas",
								"1234567890005570"
							]
						}
					},
					"response": []
				},
				{
					"name": "Obtener lista  CUENTAS",
					"request": {
						"method": "GET",
						"header": [],
						"url": {
							"raw": "http://localhost:9000/api/v1/cuentas/",
							"protocol": "http",
							"host": [
								"localhost"
							],
							"port": "9000",
							"path": [
								"api",
								"v1",
								"cuentas",
								""
							]
						}
					},
					"response": []
				},
				{
					"name": "Agregar cuenta",
					"event": [
						{
							"listen": "prerequest",
							"script": {
								"exec": [
									"// Generar un documento aleatorio.\",\t\t\t\t\t\t\t\r",
									"const numero = Math.trunc(1234567890000000 + Math.random() * 8888);\t\t\t\t\t\t\t\r",
									"\t\t\t\t\t\t\t\r",
									"// generar un nombre completo aleatorio.\",\t\t\t\t\t\t\t\r",
									"const monedas = [\"PEN\",\"USD\"];\t\t\r",
									"const unMoneda = monedas[_.random(monedas.length - 1)];\t\t\t\t\t\t\t\r",
									"const tipos = [\"Ahorro\",\"CtaFija\",\"CtaGanadora\"];\t\t\t\t\t\t\t\t\t\t\t\r",
									"const unTipo = tipos[_.random(tipos.length - 1)];\t\t\r",
									"const estados = [\"Activo\",\"Inactivo\"];\t\t\t\t\t\t\t\t\t\t\t\r",
									"const unEstado = estados[_.random(estados.length - 1)];\t\t\t\t\t\t\t\t\t\t\t\t\r",
									"\t\t\t\t\t\t\t\t\t\t\t\t\r",
									"\t\t\t\t\t\t\t\r",
									"const saldo = _.random(1000, 10000);\t\t\t\t\t\t\t\r",
									"\t\t\t\t\t\r",
									"\t\t\t\t\t\t\t\r",
									"const oficina = _.random(1000,777);\t\t\t\t\t\t\t\t\t\t\t\t\t\r",
									"\t\t\t\t\t\t\t\r",
									"pm.globals.set(\"numero\",numero);\t\t\t\t\t\t\t\r",
									"pm.globals.set(\"moneda\", unMoneda);\t\t\t\t\t\t\t\r",
									"pm.globals.set(\"saldo\", saldo);\t\t\t\t\t\t\t\r",
									"pm.globals.set(\"tipo\", unTipo);\t\t\t\t\t\t\t\r",
									"pm.globals.set(\"estado\", unEstado);\t\t\t\t\t\t\t\r",
									"pm.globals.set(\"oficina\", oficina);\t\r",
									"\r",
									"  console.log(\"numero\"+pm.variables.get(\"numero\"))\r",
									"  console.log(\"moneda\"+pm.variables.get(\"moneda\"))\r",
									"  console.log(\"saldo\"+pm.variables.get(\"saldo\"))\r",
									"  console.log(\"tipo\"+pm.variables.get(\"tipo\"))\r",
									"  console.log(\"estado\"+pm.variables.get(\"estado\"))\r",
									"  console.log(\"oficina\"+pm.variables.get(\"oficina\"))\r",
									"\t\t\t\t\t\t\r",
									"\t\t\t\t\t\t"
								],
								"type": "text/javascript"
							}
						}
					],
					"request": {
						"method": "POST",
						"header": [],
						"body": {
							"mode": "raw",
							"raw": "{\r\n    \"numero\": \"{{numero}}\",\r\n    \"moneda\": \"{{moneda}}\",\r\n    \"saldo\": \"{{saldo}}\",\r\n    \"tipo\": \"{{tipo}}\",\r\n    \"estado\": \"{{estado}}\",\r\n    \"oficina\": \"{{oficina}}\"\r\n}",
							"options": {
								"raw": {
									"language": "json"
								}
							}
						},
						"url": {
							"raw": "http://localhost:9000/api/v1/cuentas",
							"protocol": "http",
							"host": [
								"localhost"
							],
							"port": "9000",
							"path": [
								"api",
								"v1",
								"cuentas"
							]
						}
					},
					"response": []
				},
				{
					"name": "Cuenta reemplazar",
					"request": {
						"method": "PUT",
						"header": [],
						"body": {
							"mode": "raw",
							"raw": "{\r\n    \"numero\": \"0011200048795840\",\r\n    \"moneda\": \"USD\",\r\n    \"saldo\": \"3200\",\r\n    \"tipo\": \"AHORRO\",\r\n    \"estado\": \"ACTIVO\",\r\n    \"oficina\": \"ATE\"\r\n}",
							"options": {
								"raw": {
									"language": "json"
								}
							}
						},
						"url": {
							"raw": "http://localhost:9000/api/v1/cuentas/1234567890006943",
							"protocol": "http",
							"host": [
								"localhost"
							],
							"port": "9000",
							"path": [
								"api",
								"v1",
								"cuentas",
								"1234567890006943"
							]
						}
					},
					"response": []
				},
				{
					"name": "Actualizar parcialmente cuenta",
					"request": {
						"method": "PATCH",
						"header": [],
						"body": {
							"mode": "raw",
							"raw": "{\r\n\r\n    \"moneda\": \"DOLARESSXSSSSX\",\r\n    \"saldo\": 14444.1\r\n}",
							"options": {
								"raw": {
									"language": "json"
								}
							}
						},
						"url": {
							"raw": "http://localhost:9000/api/v1/cuentas/1234567890006943",
							"protocol": "http",
							"host": [
								"localhost"
							],
							"port": "9000",
							"path": [
								"api",
								"v1",
								"cuentas",
								"1234567890006943"
							]
						}
					},
					"response": []
				}
			]
		},
		{
			"name": "Cliente",
			"item": [
				{
					"name": "Detalle del Cliente",
					"request": {
						"method": "GET",
						"header": [],
						"url": {
							"raw": "http://localhost:9000/api/v1/clientes/12350647",
							"protocol": "http",
							"host": [
								"localhost"
							],
							"port": "9000",
							"path": [
								"api",
								"v1",
								"clientes",
								"12350647"
							],
							"query": [
								{
									"key": "pagina",
									"value": "1",
									"disabled": true
								},
								{
									"key": "cantidad",
									"value": "6",
									"disabled": true
								}
							]
						}
					},
					"response": []
				},
				{
					"name": "Obtener Cliente por Pagina",
					"request": {
						"method": "GET",
						"header": [],
						"url": {
							"raw": "http://localhost:9000/api/v1/clientes/?pagina=2&cantidad=2",
							"protocol": "http",
							"host": [
								"localhost"
							],
							"port": "9000",
							"path": [
								"api",
								"v1",
								"clientes",
								""
							],
							"query": [
								{
									"key": "pagina",
									"value": "2"
								},
								{
									"key": "cantidad",
									"value": "2"
								}
							]
						}
					},
					"response": []
				},
				{
					"name": "Agregar Cliente",
					"event": [
						{
							"listen": "prerequest",
							"script": {
								"type": "text/javascript",
								"exec": [
									"// Generar un documento aleatorio.\r",
									"const documento = Math.trunc(12345678 + Math.random() * 8888);\r",
									"\r",
									"\r",
									"// generar un nombre completo aleatorio.\r",
									"const apellidos = [\"Gonzalez\",\"Jimenez\",\"Ramirez\",\"Ortiz\",\"Perez\"];\r",
									"const nombres = [\"Juan\",\"Ana\",\"Graciela\",\"Roberto\",\"Jaime\"];\r",
									"const unApellido = apellidos[_.random(apellidos.length - 1)];\r",
									"const unNombre = nombres[_.random(nombres.length - 1)];\r",
									"const nombreCompleto = unNombre + \" \" + unApellido;\r",
									"\r",
									"\r",
									"const correo_e = unNombre + \".\" + unApellido + \"@micorreo.com\";\r",
									"\r",
									"\r",
									"const edad = _.random(18, 98);\r",
									"\r",
									"\r",
									"const a = 2021 - edad;\r",
									"const m = _.random(1, 12);\r",
									"const d = _.random(1, 28);\r",
									"const fechaNacimiento = a + \"/\" + m + \"/\" + d;\r",
									"\r",
									"\r",
									"const direccion = \"Santa Rosa de Lima N° \" + _.random(100,1079);\r",
									"\r",
									"\r",
									"const t1 = _.random(100,777);\r",
									"const t2 = _.random(100,777);\r",
									"const t3 = _.random(100,777);\r",
									"const telefono = t1 + \" \" + t2 + \" \" + t3;\r",
									"\r",
									"\r",
									"pm.globals.set(\"direccion\",direccion);\r",
									"pm.globals.set(\"telefono\", telefono);\r",
									"pm.globals.set(\"correo_electronico\", correo_e);\r",
									"pm.globals.set(\"nombreCompleto\", nombreCompleto);\r",
									"pm.globals.set(\"documento\", documento);\r",
									"pm.globals.set(\"edad\", edad);\r",
									"pm.globals.set(\"fechaNacimiento\", fechaNacimiento);\r",
									""
								]
							}
						}
					],
					"request": {
						"method": "POST",
						"header": [],
						"body": {
							"mode": "raw",
							"raw": "{\r\n   \"documento\":\"{{documento}}\",\r\n    \"nombre\":\"{{nombreCompleto}}\",\r\n    \"edad\":{{edad}},\r\n    \"fechaNacimiento\":\"{{fechaNacimiento}}\",\r\n    \"telefono\":\"{{telefono}}\",\r\n    \"correo\":\"{{correo_electronico}}\",\r\n    \"direccion\":\"{{direccion}}\"\r\n\r\n    }",
							"options": {
								"raw": {
									"language": "json"
								}
							}
						},
						"url": {
							"raw": "http://localhost:9000/api/v1/clientes/",
							"protocol": "http",
							"host": [
								"localhost"
							],
							"port": "9000",
							"path": [
								"api",
								"v1",
								"clientes",
								""
							]
						}
					},
					"response": []
				},
				{
					"name": "Borrar Cliente 12345678",
					"event": [
						{
							"listen": "prerequest",
							"script": {
								"exec": [
									""
								],
								"type": "text/javascript"
							}
						}
					],
					"request": {
						"method": "DELETE",
						"header": [],
						"url": {
							"raw": "http://localhost:9000/api/v1/clientes/12345678",
							"protocol": "http",
							"host": [
								"localhost"
							],
							"port": "9000",
							"path": [
								"api",
								"v1",
								"clientes",
								"12345678"
							]
						}
					},
					"response": []
				},
				{
					"name": "Reemplazar Cliente",
					"request": {
						"method": "PATCH",
						"header": [],
						"body": {
							"mode": "raw",
							"raw": "{\n    \"documento\" : \"98765432\",\n    \"edad\" : 39,\n    \"fechaNacimiento\": \"23/01/1982\"\n}\n",
							"options": {
								"raw": {
									"language": "json"
								}
							}
						},
						"url": {
							"raw": "http://localhost:9000/api/v1/clientes/12345678",
							"protocol": "http",
							"host": [
								"localhost"
							],
							"port": "9000",
							"path": [
								"api",
								"v1",
								"clientes",
								"12345678"
							]
						}
					},
					"response": []
				},
				{
					"name": "Cliente reemplazar",
					"request": {
						"method": "PUT",
						"header": [],
						"body": {
							"mode": "raw",
							"raw": "{\r\n    \"documento\": \"12345681\",\r\n    \"nombre\": \"Otro nombre\",\r\n    \"edad\": \"30\",\r\n    \"fechaNacimiento\": \"23/01/1985\",\r\n    \"telefono\": \"970841222\",\r\n    \"correo\": \"ian.gamboa@gmail.com\",\r\n    \"direccion\": \"ATE 738/5\"\r\n}",
							"options": {
								"raw": {
									"language": "json"
								}
							}
						},
						"url": {
							"raw": "http://localhost:9000/api/v1/clientes/12345681",
							"protocol": "http",
							"host": [
								"localhost"
							],
							"port": "9000",
							"path": [
								"api",
								"v1",
								"clientes",
								"12345681"
							]
						}
					},
					"response": []
				}
			]
		},
		{
			"name": "Relacion Cuenta con Cliente",
			"item": [
				{
					"name": "Obtener las Cuentas de un Cliente",
					"request": {
						"method": "GET",
						"header": [],
						"url": {
							"raw": "http://localhost:9000/api/v1/clientes/{{documentoCliente}}/cuentas/",
							"protocol": "http",
							"host": [
								"localhost"
							],
							"port": "9000",
							"path": [
								"api",
								"v1",
								"clientes",
								"{{documentoCliente}}",
								"cuentas",
								""
							]
						}
					},
					"response": []
				},
				{
					"name": "obtener datos Cuenta por numero cuenta y cliente",
					"protocolProfileBehavior": {
						"disableBodyPruning": true
					},
					"request": {
						"method": "GET",
						"header": [],
						"body": {
							"mode": "raw",
							"raw": "{\r\n    \"documento\": \"12345678\",\r\n    \"nombre\": \"Juan Rodrigez Ledesma\",\r\n    \"edad\": \"38\",\r\n    \"fechaNacimiento\": \"23/01/1985\",\r\n    \"telefono\": \"555 444 328\",\r\n    \"correo\": \"juanrledesma893493@gmail.com\",\r\n    \"direccion\": \"San Juan Capistrano 738/5\"\r\n}",
							"options": {
								"raw": {
									"language": "json"
								}
							}
						},
						"url": {
							"raw": "http://localhost:9000/api/v1/clientes/12349032/cuentas/1234567890006943",
							"protocol": "http",
							"host": [
								"localhost"
							],
							"port": "9000",
							"path": [
								"api",
								"v1",
								"clientes",
								"12349032",
								"cuentas",
								"1234567890006943"
							]
						}
					},
					"response": []
				},
				{
					"name": "Agregar Cuenta al Cliente",
					"request": {
						"method": "POST",
						"header": [],
						"body": {
							"mode": "raw",
							"raw": "{\n    \"codigoCuenta\": \"1234567890006943\"\n}\n",
							"options": {
								"raw": {
									"language": "json"
								}
							}
						},
						"url": {
							"raw": "http://localhost:9000/api/v1/clientes/12349032/cuentas",
							"protocol": "http",
							"host": [
								"localhost"
							],
							"port": "9000",
							"path": [
								"api",
								"v1",
								"clientes",
								"12349032",
								"cuentas"
							]
						}
					},
					"response": []
				},
				{
					"name": "Agregar Cuenta al Cliente con variable",
					"request": {
						"method": "POST",
						"header": [],
						"body": {
							"mode": "raw",
							"raw": "{\n    \"codigoCuenta\": {{numeroCuenta}}\n}\n",
							"options": {
								"raw": {
									"language": "json"
								}
							}
						},
						"url": {
							"raw": "http://localhost:9000/api/v1/clientes/12348662/cuentas",
							"protocol": "http",
							"host": [
								"localhost"
							],
							"port": "9000",
							"path": [
								"api",
								"v1",
								"clientes",
								"12348662",
								"cuentas"
							]
						}
					},
					"response": []
				},
				{
					"name": "Eliminar Cuenta por numero cuenta y cliente",
					"request": {
						"method": "DELETE",
						"header": [],
						"url": {
							"raw": "http://localhost:9000/api/v1/clientes/12349032/cuentas/1234567890006943",
							"protocol": "http",
							"host": [
								"localhost"
							],
							"port": "9000",
							"path": [
								"api",
								"v1",
								"clientes",
								"12349032",
								"cuentas",
								"1234567890006943"
							]
						}
					},
					"response": []
				}
			]
		}
	]
}